module articletranslator

go 1.23.2

require (
	cloud.google.com/go/translate v1.12.2
	golang.org/x/text v0.20.0
)

require (
	cloud.google.com/go v0.116.0 // indirect
	cloud.google.com/go/auth v0.10.2 // indirect
	cloud.google.com/go/auth/oauth2adapt v0.2.5 // indirect
	cloud.google.com/go/compute/metadata v0.5.2 // indirect
	github.com/felixge/httpsnoop v1.0.4 // indirect
	github.com/go-logr/logr v1.4.2 // indirect
	github.com/go-logr/stdr v1.2.2 // indirect
	github.com/golang/groupcache v0.0.0-20210331224755-41bb18bfe9da // indirect
	github.com/google/s2a-go v0.1.8 // indirect
	github.com/google/uuid v1.6.0 // indirect
	github.com/googleapis/enterprise-certificate-proxy v0.3.4 // indirect
	github.com/googleapis/gax-go/v2 v2.14.0 // indirect
	go.opencensus.io v0.24.0 // indirect
	go.opentelemetry.io/contrib/instrumentation/net/http/otelhttp v0.57.0 // indirect
	go.opentelemetry.io/otel v1.32.0 // indirect
	go.opentelemetry.io/otel/metric v1.32.0 // indirect
	go.opentelemetry.io/otel/trace v1.32.0 // indirect
	golang.org/x/crypto v0.29.0 // indirect
	golang.org/x/net v0.31.0 // indirect
	golang.org/x/oauth2 v0.24.0 // indirect
	golang.org/x/sys v0.27.0 // indirect
	google.golang.org/api v0.206.0 // indirect
	google.golang.org/genproto/googleapis/rpc v0.0.0-20241113202542-65e8d215514f // indirect
	google.golang.org/grpc v1.68.0 // indirect
	google.golang.org/protobuf v1.35.2 // indirect
)
